<?xml version="1.0" encoding="UTF-8" standalone="no"?>
<svg width="9793px" height="4802px" viewBox="0 0 9793 4802" version="1.1" xmlns="http://www.w3.org/2000/svg" xmlns:xlink="http://www.w3.org/1999/xlink" xmlns:sketch="http://www.bohemiancoding.com/sketch/ns">
    <!-- Generator: Sketch 3.2.2 (9983) - http://www.bohemiancoding.com/sketch -->
    <title>camp</title>
    <desc>Created with Sketch.</desc>
    <defs></defs>
    <g id="Page-1" stroke="none" stroke-width="1" fill="none" fill-rule="evenodd" sketch:type="MSPage">
        <g id="Слой_x0020_1" sketch:type="MSLayerGroup">
            <g id="camp" sketch:type="MSShapeGroup">
                <path d="M1651,3795 L1669,3795 L3816,1869 L3816,2677 L3178,2677 L2356,3423 L3816,3423 L3816,3835 L4628,3835 L4629,14 L1558,2828 L1500,2828 C687,2828 730,1478 1748,1478 L2726,1478 L3538,794 L1690,794 C-625,794 -417,3794 1442,3794 L1650,3794 L1651,3795 Z" id="Shape" fill="#142537"></path>
                <path d="M9792,1943 C9792,1586 9661,1296 9400,1073 C9175,881 8920,784 8637,784 L7467,784 L7463,2365 L6882,1799 L5755,701 L5761,1814 L4682,39 L4698,3834 L5551,3834 L5551,2676 L6552,3797 L6538,2686 L7459,3833 L8271,3835 L8271,1519 L8634,1519 C8747,1519 8846,1559 8931,1639 C9016,1719 9059,1820 9059,1944 C9059,2070 9017,2173 8933,2251 C8849,2329 8750,2368 8634,2368 L8461,2368 L8461,3102 L8622,3102 C8905,3102 9172,3007 9397,2818 C9661,2596 9793,2304 9793,1944 L9792,1943 Z" id="Shape" fill="#142537"></path>
                <path d="M7457,2357 L7452,2363 L6975,1970 L6942,2194 L6688,2091 L6395,1725 L6040,1678 L5792,1559 L6211,1468 L5905,1003 L5937,1199 L5849,1274 L5754,1505 L5749,685 L7457,2349 L7457,2328 L7493,2363 L7476,2382 L7457,2366 L7457,2356 L7457,2357 Z M5786,1825 L5981,1905 L6022,1747 L6388,2161 C6445,2209 6872,3015 6883,3093 L6889,3131 L6603,2775 L6338,2436 L6233,2325 L6253,2409 L6375,2716 L6335,2683 C6090,2481 5863,2259 5626,2048 C5544,1971 5450,1868 5340,1836 C5322,1832 5250,1842 5225,1843 C5154,1847 5049,1683 4968,1691 C4958,1733 5358,2194 5414,2263 C5453,2310 5487,2362 5519,2414 C5541,2451 5723,2779 5676,2801 C5669,2804 5662,2801 5656,2796 L5636,2778 L5559,2692 L5559,2707 L5272,2443 C5106,2290 4877,2238 4689,2121 L4686,2119 L4677,15 L4979,512 L4824,428 L5078,676 L5473,1326 L5459,1337 L5243,1119 L5036,1047 L5023,1147 L4765,1138 L4702,1180 L4701,1326 L4701,1411 L4919,1218 L5207,1278 L5258,1384 L5620,1567 L5756,1791 L5756,1775 L5787,1825 L5786,1825 Z M4347,1924 L4320,1935 C4190,1960 4133,2021 4030,2095 C4009,2110 3990,2130 3972,2150 C3950,2175 3868,2306 3839,2301 C3817,2297 3812,2253 3810,2236 L3810,1885 L2770,2817 L2947,2340 L2640,2307 L2642,2293 C2650,2238 2825,2179 2870,2140 L3099,1841 L4120,1269 L4276,883 L3934,1073 L4104,684 L4243,508 L4000,686 L3520,1338 L2430,2350 L2428,2322 C2423,2253 2389,2217 2323,2257 C2207,2327 2100,2415 1994,2500 C1894,2580 1796,2663 1696,2742 C1666,2765 1599,2824 1564,2830 L1541,2835 L4635,0 L4635,2096 L4623,2088 C4578,2060 4385,1932 4346,1924 L4347,1924 Z M4515,1471 L4478,1589 L4520,1540 L4516,1496 C4515,1488 4515,1479 4514,1471 L4515,1471 Z M4537,1521 L4618,1428 C4612,1377 4614,1316 4597,1266 L4538,1521 L4537,1521 Z" id="Shape" fill="#FFFFFF"></path>
                <path d="M808,4323 C822,4323 835,4328 845,4338 C855,4348 860,4360 860,4375 C860,4389 855,4402 845,4412 C835,4422 823,4427 808,4427 L490,4427 L490,4741 C490,4755 485,4768 475,4778 C465,4788 453,4793 438,4793 C424,4793 411,4788 401,4778 C391,4768 386,4756 386,4741 L386,4427 L64,4427 C51,4426 40,4420 31,4410 C22,4400 17,4389 17,4375 C17,4361 22,4348 32,4338 C42,4328 54,4323 69,4323 L808,4323 L808,4323 Z M2118,4655 C2110,4655 2103,4654 2097,4651 L2006,4772 C1995,4785 1982,4791 1966,4791 C1952,4791 1939,4786 1929,4776 C1919,4766 1914,4754 1914,4739 C1914,4726 1918,4716 1925,4708 L2186,4357 C2198,4341 2214,4327 2234,4317 C2254,4307 2276,4301 2298,4301 C2319,4301 2340,4306 2359,4315 C2378,4324 2394,4337 2406,4354 L2667,4703 C2671,4708 2675,4714 2678,4720 C2681,4726 2682,4733 2682,4740 C2682,4754 2677,4767 2667,4777 C2657,4787 2645,4792 2630,4792 C2613,4792 2599,4785 2589,4772 L2500,4653 C2494,4655 2488,4656 2481,4656 L2116,4656 L2118,4655 Z M2171,4552 L2427,4552 L2341,4437 C2336,4431 2330,4425 2322,4418 C2314,4411 2307,4408 2299,4408 C2291,4408 2283,4411 2276,4418 C2268,4425 2263,4431 2258,4437 L2171,4552 L2171,4552 Z M1071,4750 C1071,4764 1066,4777 1056,4787 C1046,4797 1034,4802 1019,4802 C1005,4802 992,4797 982,4787 C972,4777 967,4765 967,4750 L967,4749 C966,4746 966,4743 966,4739 L966,4636 C966,4631 966,4626 967,4621 L967,4384 L967,4383 C966,4380 966,4377 966,4373 C966,4359 971,4346 981,4336 C991,4326 1003,4321 1018,4321 L1662,4321 C1682,4321 1701,4325 1718,4332 C1736,4340 1751,4350 1764,4363 C1777,4376 1788,4391 1795,4408 C1803,4425 1806,4444 1806,4464 C1806,4484 1802,4503 1795,4520 C1787,4537 1777,4552 1764,4565 C1751,4578 1735,4588 1718,4596 C1700,4604 1682,4607 1662,4607 L1658,4607 C1677,4619 1697,4632 1717,4646 C1737,4660 1757,4675 1778,4692 C1786,4698 1793,4704 1798,4712 C1804,4720 1807,4728 1807,4738 C1807,4752 1802,4765 1792,4775 C1782,4785 1770,4790 1755,4790 C1743,4790 1731,4785 1718,4775 C1689,4754 1659,4733 1628,4713 C1597,4693 1565,4675 1532,4659 C1499,4643 1464,4631 1428,4621 C1392,4612 1355,4607 1316,4607 L1102,4607 C1093,4608 1085,4613 1078,4620 C1073,4625 1071,4631 1069,4638 L1069,4749 L1071,4750 Z M1071,4426 L1071,4508 C1079,4506 1088,4506 1097,4506 L1666,4506 C1677,4506 1686,4502 1694,4495 C1702,4487 1706,4478 1706,4467 C1706,4456 1702,4447 1694,4439 C1686,4431 1676,4427 1666,4427 L1071,4427 L1071,4426 Z M4053,4750 C4053,4764 4048,4777 4038,4787 C4028,4797 4016,4802 4001,4802 C3987,4802 3974,4797 3964,4787 C3954,4777 3949,4765 3949,4750 L3949,4750 C3948,4747 3948,4743 3948,4740 L3948,4637 C3948,4632 3948,4626 3949,4621 L3949,4385 C3948,4382 3948,4378 3948,4375 C3948,4361 3953,4348 3963,4338 C3973,4328 3985,4323 4000,4323 L4644,4323 C4664,4323 4683,4327 4700,4334 C4718,4342 4733,4352 4746,4365 C4759,4378 4770,4393 4777,4410 C4785,4427 4788,4446 4788,4466 C4788,4486 4784,4505 4777,4522 C4769,4539 4759,4554 4746,4567 C4733,4580 4717,4590 4700,4598 C4682,4606 4664,4609 4644,4609 L4640,4609 C4659,4621 4679,4634 4699,4648 C4719,4662 4739,4677 4760,4694 C4768,4700 4775,4706 4780,4714 C4786,4722 4789,4730 4789,4740 C4789,4754 4784,4767 4774,4777 C4764,4787 4752,4792 4737,4792 C4725,4792 4713,4787 4700,4777 C4671,4756 4641,4735 4610,4715 C4579,4695 4547,4677 4514,4661 C4481,4645 4446,4633 4410,4623 C4374,4614 4337,4609 4298,4609 L4084,4609 C4075,4610 4067,4615 4060,4622 C4056,4627 4053,4633 4051,4640 L4051,4751 L4053,4750 Z M4053,4426 L4053,4508 C4061,4506 4070,4506 4079,4506 L4648,4506 C4659,4506 4668,4502 4676,4495 C4684,4487 4688,4478 4688,4467 C4688,4456 4684,4447 4676,4439 C4668,4431 4658,4427 4648,4427 L4053,4427 L4053,4426 Z M2894,4740 C2894,4754 2889,4767 2879,4777 C2869,4787 2857,4792 2842,4792 C2828,4792 2815,4787 2805,4777 C2795,4767 2790,4755 2790,4740 L2790,4375 C2790,4361 2795,4348 2805,4338 C2815,4328 2827,4323 2842,4323 C2856,4323 2869,4328 2879,4338 C2889,4348 2894,4360 2894,4375 L2894,4740 L2894,4740 Z M3149,4792 C3129,4792 3110,4788 3092,4781 C3074,4773 3059,4763 3045,4750 C3032,4737 3021,4722 3013,4705 C3005,4688 3001,4669 3001,4649 L3001,4375 C3001,4361 3006,4348 3016,4338 C3026,4328 3038,4323 3053,4323 C3067,4323 3079,4328 3089,4338 C3099,4348 3105,4360 3105,4375 L3105,4649 C3105,4660 3109,4669 3117,4677 C3125,4685 3135,4689 3145,4689 L3790,4689 C3804,4689 3817,4694 3827,4704 C3837,4714 3842,4726 3842,4741 C3842,4755 3837,4768 3827,4778 C3817,4788 3805,4793 3790,4793 L3149,4793 L3149,4792 Z M5000,4558 C5000,4571 5002,4585 5005,4600 C5008,4615 5014,4630 5023,4642 C5032,4655 5044,4666 5060,4675 C5075,4684 5096,4688 5121,4688 L5549,4688 C5573,4688 5593,4684 5609,4675 C5625,4666 5637,4655 5646,4642 C5655,4629 5661,4615 5664,4600 C5667,4585 5669,4570 5669,4558 L5669,4376 C5669,4362 5674,4349 5684,4339 C5694,4329 5706,4324 5721,4324 C5735,4324 5748,4329 5758,4339 C5768,4349 5773,4361 5773,4376 L5773,4558 C5773,4585 5769,4613 5760,4640 C5751,4668 5738,4693 5721,4715 C5704,4738 5683,4756 5659,4770 C5635,4784 5607,4791 5576,4791 L5086,4791 C5057,4790 5030,4782 5008,4767 C4985,4752 4966,4734 4949,4712 C4933,4690 4921,4665 4912,4638 C4903,4611 4899,4584 4899,4557 L4899,4375 C4899,4361 4904,4348 4914,4338 C4924,4328 4936,4323 4951,4323 C4965,4323 4978,4328 4988,4338 C4998,4348 5003,4360 5003,4375 L5003,4557 L5000,4558 Z M6610,4375 C6610,4361 6615,4348 6625,4338 C6635,4328 6647,4323 6662,4323 C6676,4323 6689,4328 6699,4338 C6709,4348 6714,4360 6714,4375 L6714,4688 C6714,4717 6704,4742 6684,4762 C6664,4782 6640,4792 6610,4792 C6600,4792 6590,4791 6580,4788 C6570,4785 6562,4781 6554,4776 L6062,4475 C6048,4467 6037,4461 6028,4456 C6019,4451 6012,4449 6006,4449 C5995,4449 5988,4456 5986,4469 C5983,4483 5982,4502 5982,4528 L5982,4740 C5982,4754 5977,4767 5967,4777 C5957,4787 5945,4792 5930,4792 C5916,4792 5903,4787 5893,4777 C5883,4767 5878,4755 5878,4740 L5878,4427 C5878,4398 5888,4373 5908,4353 C5928,4333 5952,4323 5982,4323 C5992,4323 6002,4324 6012,4327 C6022,4330 6030,4334 6038,4339 L6530,4640 C6544,4648 6555,4654 6564,4659 C6573,4664 6580,4666 6586,4666 C6597,4666 6604,4659 6606,4646 C6609,4632 6610,4613 6610,4587 L6610,4375 L6610,4375 Z M7552,4375 C7552,4361 7557,4348 7567,4338 C7577,4328 7589,4323 7604,4323 C7618,4323 7631,4328 7641,4338 C7651,4348 7656,4360 7656,4375 L7656,4688 C7656,4717 7646,4742 7626,4762 C7606,4782 7582,4792 7552,4792 C7542,4792 7532,4791 7522,4788 C7512,4785 7504,4781 7496,4776 L7004,4475 C6990,4467 6979,4461 6970,4456 C6961,4451 6954,4449 6948,4449 C6937,4449 6930,4456 6928,4469 C6925,4483 6924,4502 6924,4528 L6924,4740 C6924,4754 6919,4767 6909,4777 C6899,4787 6887,4792 6872,4792 C6858,4792 6845,4787 6835,4777 C6825,4767 6820,4755 6820,4740 L6820,4427 C6820,4398 6830,4373 6850,4353 C6870,4333 6894,4323 6924,4323 C6934,4323 6944,4324 6954,4327 C6964,4330 6972,4334 6980,4339 L7472,4640 C7486,4648 7497,4654 7506,4659 C7515,4664 7522,4666 7528,4666 C7539,4666 7546,4659 7548,4646 C7551,4632 7552,4613 7552,4587 L7552,4375 L7552,4375 Z M7866,4740 C7866,4754 7861,4767 7851,4777 C7841,4787 7829,4792 7814,4792 C7800,4792 7787,4787 7777,4777 C7767,4767 7762,4755 7762,4740 L7762,4375 C7762,4361 7767,4348 7777,4338 C7787,4328 7799,4323 7814,4323 C7828,4323 7841,4328 7851,4338 C7861,4348 7866,4360 7866,4375 L7866,4740 L7866,4740 Z M8705,4375 C8705,4361 8710,4348 8720,4338 C8730,4328 8742,4323 8757,4323 C8771,4323 8784,4328 8794,4338 C8804,4348 8809,4360 8809,4375 L8809,4688 C8809,4717 8799,4742 8779,4762 C8759,4782 8735,4792 8705,4792 C8695,4792 8685,4791 8675,4788 C8665,4785 8657,4781 8649,4776 L8157,4475 C8143,4467 8132,4461 8123,4456 C8114,4451 8107,4449 8101,4449 C8090,4449 8083,4456 8081,4469 C8078,4483 8077,4502 8077,4528 L8077,4740 C8077,4754 8072,4767 8062,4777 C8052,4787 8040,4792 8025,4792 C8011,4792 7998,4787 7988,4777 C7978,4767 7973,4755 7973,4740 L7973,4427 C7973,4398 7983,4373 8003,4353 C8023,4333 8047,4323 8077,4323 C8087,4323 8097,4324 8107,4327 C8117,4330 8125,4334 8133,4339 L8625,4640 C8639,4648 8650,4654 8659,4659 C8668,4664 8675,4666 8681,4666 C8692,4666 8699,4659 8701,4646 C8704,4632 8705,4613 8705,4587 L8705,4375 L8705,4375 Z M9199,4558 C9199,4544 9204,4531 9214,4521 C9224,4511 9236,4506 9251,4506 L9662,4506 C9680,4506 9697,4509 9713,4516 C9729,4523 9743,4532 9754,4544 C9766,4556 9775,4570 9781,4586 C9787,4602 9791,4619 9791,4637 L9791,4661 C9791,4679 9788,4696 9781,4712 C9775,4728 9765,4742 9754,4754 C9742,4766 9728,4775 9713,4782 C9697,4789 9680,4792 9662,4792 L9102,4792 C9073,4792 9046,4785 9024,4771 C9001,4757 8982,4738 8965,4716 C8949,4693 8937,4668 8928,4640 C8919,4612 8915,4585 8915,4558 C8915,4531 8919,4503 8928,4476 C8937,4448 8950,4423 8967,4401 C8984,4378 9005,4360 9029,4346 C9053,4332 9081,4325 9112,4325 L9738,4325 C9752,4325 9765,4330 9775,4340 C9785,4350 9790,4362 9790,4377 C9790,4391 9785,4404 9775,4414 C9765,4424 9753,4429 9738,4429 L9135,4429 C9110,4429 9090,4433 9074,4442 C9059,4451 9046,4462 9037,4475 C9028,4488 9022,4502 9019,4517 C9016,4532 9014,4547 9014,4559 C9014,4572 9016,4586 9019,4601 C9022,4616 9028,4631 9037,4643 C9046,4656 9058,4667 9074,4676 C9089,4685 9110,4689 9135,4689 L9656,4689 C9665,4689 9672,4685 9679,4677 C9686,4669 9689,4660 9689,4649 C9689,4638 9686,4629 9680,4621 C9674,4613 9666,4609 9656,4609 L9249,4609 C9235,4609 9222,4604 9212,4594 C9202,4584 9197,4572 9197,4557 L9199,4558 Z" id="Shape" fill="#142537"></path>
                <path d="M8437,3593 C8437,3433 8567,3315 8720,3315 C8872,3315 9002,3433 9002,3593 C9002,3754 8872,3872 8720,3872 C8567,3872 8437,3754 8437,3593 L8437,3593 Z M8720,3826 C8846,3826 8946,3727 8946,3593 C8946,3461 8846,3362 8720,3362 C8592,3362 8493,3461 8493,3593 C8493,3727 8592,3826 8720,3826 L8720,3826 Z M8661,3755 L8612,3755 L8612,3434 L8734,3434 C8810,3434 8847,3462 8847,3525 C8847,3582 8811,3608 8764,3613 L8855,3755 L8800,3755 L8715,3616 L8659,3616 L8659,3755 L8661,3755 Z M8719,3574 C8760,3574 8797,3571 8797,3522 C8797,3482 8761,3475 8727,3475 L8661,3475 L8661,3574 L8719,3574 L8719,3574 Z M8437,3593 C8437,3433 8567,3315 8720,3315 C8872,3315 9002,3433 9002,3593 C9002,3754 8872,3872 8720,3872 C8567,3872 8437,3754 8437,3593 L8437,3593 Z M8720,3826 C8846,3826 8946,3727 8946,3593 C8946,3461 8846,3362 8720,3362 C8592,3362 8493,3461 8493,3593 C8493,3727 8592,3826 8720,3826 L8720,3826 Z M8661,3755 L8612,3755 L8612,3434 L8734,3434 C8810,3434 8847,3462 8847,3525 C8847,3582 8811,3608 8764,3613 L8855,3755 L8800,3755 L8715,3616 L8659,3616 L8659,3755 L8661,3755 Z M8719,3574 C8760,3574 8797,3571 8797,3522 C8797,3482 8761,3475 8727,3475 L8661,3475 L8661,3574 L8719,3574 L8719,3574 Z" id="Shape" fill="#142537"></path>
            </g>
        </g>
    </g>
</svg>